Data Science Portfolio - Using Machine Learning to Predict Diabetes
…
# A tibble: 1 × 3
  .metric  .estimator .estimate
  <chr>    <chr>          <dbl>
1 accuracy binary         0.802

Our accuracy is 80.2%. This an improvement over the simplest model, which would consist of guessing that no one will develop diabetes. The simple model would have 65.1% accuracy, so our first pass at a random forest model does represent an improvement in accuracy over the simple model. One thing we need to check is the stability of our measure of accuracy, which could be sensitive to the random seed we used. Let’s set up 5-fold cross validation (repeated 5 times) to get a more stable estimate of the accuracy of the random forest model.

Code
set.seed(456)
df_folds <- vfold_cv(df_train, v = 5, repeats = 5, strata = Diagnosis)
df_folds

#  5-fold cross-validation repeated 5 times using stratification 
# A tibble: 25 × 3
   splits            id      id2  
   <list>            <chr>   <chr>
 1 <split [460/116]> Repeat1 Fold1
 2 <split [461/115]> Repeat1 Fold2
 3 <split [461/115]> Repeat1 Fold3
 4 <split [461/115]> Repeat1 Fold4
 5 <split [461/115]> Repeat1 Fold5
 6 <split [460/116]> Repeat2 Fold1
 7 <split [461/115]> Repeat2 Fold2
 8 <split [461/115]> Repeat2 Fold3
 9 <split [461/115]> Repeat2 Fold4
10 <split [461/115]> Repeat2 Fold5
# ℹ 15 more rows
…
